module gitlab.com/alomio/benchmark-lambda/client

go 1.19

require (
	github.com/aws/aws-sdk-go-v2/config v1.18.19
	github.com/aws/aws-sdk-go-v2/service/cloudwatchlogs v1.20.6
)

require (
	github.com/aws/aws-sdk-go-v2 v1.17.7
	github.com/aws/aws-sdk-go-v2/credentials v1.13.18 // indirect
	github.com/aws/aws-sdk-go-v2/feature/ec2/imds v1.13.1 // indirect
	github.com/aws/aws-sdk-go-v2/internal/configsources v1.1.31 // indirect
	github.com/aws/aws-sdk-go-v2/internal/endpoints/v2 v2.4.25 // indirect
	github.com/aws/aws-sdk-go-v2/internal/ini v1.3.32 // indirect
	github.com/aws/aws-sdk-go-v2/service/internal/presigned-url v1.9.25 // indirect
	github.com/aws/aws-sdk-go-v2/service/sso v1.12.6 // indirect
	github.com/aws/aws-sdk-go-v2/service/ssooidc v1.14.6 // indirect
	github.com/aws/aws-sdk-go-v2/service/sts v1.18.7 // indirect
	github.com/aws/smithy-go v1.13.5 // indirect
)
